M48
;Layer_Color=9474304
;FILE_FORMAT=4:4
METRIC
;TYPE=PLATED
T1F00S00C0.4000
T2F00S00C1.0000
T3F00S00C1.2000
T4F00S00C1.4000
%
T01
X00155000Y00018000
X00173000Y00055270
X00274750Y00039551
X00317000Y00063000
X00337000Y00051000
X00373000Y00026000
X00363883Y00087000
X00443000Y00044000
X00479000Y00049500
X00486000Y00020569
X00485000Y00090000
X00564523Y00084616
X00701000Y00041706
X00728250Y00012500
X00793082Y00061541
X00819250Y00049500
X00898940Y00049750
X00979000Y00022745
X01042000Y00016000
X01073000Y00019000
X01322000Y00056755
X01345000Y00067000
X01407650Y00065000
Y00090250
X01506000Y00045000
X01535000Y00048392
X01534000Y00036000
X01648000Y00080755
X01762000Y00073755
X01821000Y00068000
X01830629Y00078000
X01928827Y00084616
X01943000Y00042255
X01966000Y00046689
X01975000Y00063755
X01910750Y00023500
X01884703Y00023634
X01854000Y00100755
X01911373Y00142500
X01936924Y00133000
X01973000Y00145755
X01970000Y00158000
X01961000Y00183755
X01966986Y00206000
X01931859Y00181000
X01915724Y00182724
X01883000Y00187389
X01870000Y00186804
X01966000Y00104000
X01506000Y00092000
X01482000Y00106500
X01506000Y00137000
X01411000Y00167000
X01404000Y00245000
X01387000
X01370000
X01139998Y00205000
X01117000Y00120000
X00804250Y00141250
X00677750Y00185500
X00677500Y00202500
X00686000Y00195000
T02
X00062000Y00032500
X00112000Y00067500
X00349200Y00072000
X00374600
X00400000
X00425400
X00450800
X00592161Y00040161
X00609839Y00057839
X00946000Y00053500
Y00028500
X01733000Y00081200
X02072001Y00018500
X02388000Y00060500
X02438000Y00095500
Y00195500
X02388000Y00160500
X02301000Y00172500
X02231000
Y00100000
X02301000
X02072001Y00093500
X02129000Y00227755
X02179000
X01705000Y00248000
X01701511Y00202381
X01733000Y00132000
X01768000Y00106600
X00922161Y00137161
X00939839Y00154839
X00832659Y00113900
X00794559Y00190100
X00756459Y00190100
X00756459Y00113900
X00198369Y00138500
Y00213500
X00112000Y00200000
X00062000Y00165000
Y00235000
T03
X01009000Y00097000
Y00247000
X00678333
X00568294Y00230222
X00587706Y00157778
X00678333Y00097000
X00259000Y00098000
Y00248000
T04
X00727000Y00047000
X00769000Y00039000
X01066500Y00084000
X01799000Y00086000
X01799000Y00036000
X02024000
X02155000Y00062000
X02155000Y00212000
X02093000Y00186000
X02088000Y00237000
X02024000Y00236000
X01799000
Y00136000
X01590000Y00144500
Y00219500
X01291500Y00234000
Y00134000
X01066500Y00234000
X00520000Y00240000
Y00140000
X00332500
Y00240000
M30
